# device: Atmel maXTouch Touchpad
# bit: 0B 00 00 00 00 00 00 00
# key: 00 00 00 00 00 00 00 00 00 00 00 00 00 00 00 00 00 00 00 00 00 00 00 00 00 00 00 00 00 00 00 00 00 00 01 00 00 00 00 00 20 E5 00 00 00 00 00 00 00 00 00 00 00 00 00 00 00 00 00 00 00 00 00 00 00 00 00 00 00 00 00 00 00 00 00 00 00 00 00 00 00 00 00 00 00 00 00 00 00 00 00 00 00 00 00 00
# rel: 00 00 00 00 00 00 00 00
# abs: 03 00 00 01 00 80 61 06
# led: 00 00 00 00 00 00 00 00
# prp: 05 00 00 00 00 00 00 00
# absinfo: 0 0 2040 0 0 20
# absinfo: 1 0 1360 0 0 20
# absinfo: 24 0 255 0 0 0
# absinfo: 47 0 9 0 0 0
# absinfo: 48 0 1878 0 0 0
# absinfo: 53 0 2040 0 0 20
# absinfo: 54 0 1360 0 0 20
# absinfo: 57 0 65535 0 0 0
# absinfo: 58 0 255 0 0 0
E: 59988.354488 0003 002f 0
E: 59988.354488 0003 0030 286
E: 59988.354488 0003 0031 0
E: 59988.354488 0003 0032 0
E: 59988.354488 0003 0033 0
E: 59988.354488 0003 0034 0
E: 59988.354488 0003 0035 828
E: 59988.354488 0003 0036 1158
E: 59988.354488 0003 0037 0
E: 59988.354488 0003 0038 0
E: 59988.354488 0003 0039 20460
E: 59988.354488 0003 003a 61
E: 59988.354488 0003 003b 0
E: 59988.354488 0003 002f 1
E: 59988.354488 0003 0039 -1
E: 59988.354488 0003 002f 2
E: 59988.354488 0003 0039 -1
E: 59988.354488 0003 002f 3
E: 59988.354488 0003 0039 -1
E: 59988.354488 0003 002f 4
E: 59988.354488 0003 0039 -1
E: 59988.354488 0003 002f 5
E: 59988.354488 0003 0039 -1
E: 59988.354488 0003 002f 6
E: 59988.354488 0003 0039 -1
E: 59988.354488 0003 002f 7
E: 59988.354488 0003 0039 -1
E: 59988.354488 0003 002f 8
E: 59988.354488 0003 0039 -1
E: 59988.354488 0003 002f 9
E: 59988.354488 0003 0039 -1
E: 59988.354488 0003 002f 0
E: 59988.354488 0001 0145 1
E: 59988.354488 0001 014a 1
E: 59988.354488 0000 0000 0
E: 59988.359973 0003 003a 49
E: 59988.359973 0003 0018 49
E: 59988.359973 0000 0000 0
E: 59988.365465 0003 0036 1157
E: 59988.365465 0003 003a 53
E: 59988.365465 0003 0001 1157
E: 59988.365465 0003 0018 53
E: 59988.365465 0000 0000 0
E: 59988.370934 0003 003a 55
E: 59988.370934 0003 0018 55
E: 59988.370934 0000 0000 0
E: 59988.376518 0003 0035 829
E: 59988.376518 0003 0036 1156
E: 59988.376518 0003 003a 59
E: 59988.376518 0003 0030 312
E: 59988.376518 0003 0000 829
E: 59988.376518 0003 0001 1156
E: 59988.376518 0003 0018 59
E: 59988.376518 0000 0000 0
E: 59988.382056 0003 003a 60
E: 59988.382056 0003 0018 60
E: 59988.382056 0000 0000 0
E: 59988.387530 0003 0035 830
E: 59988.387530 0003 0036 1155
E: 59988.387530 0003 003a 64
E: 59988.387530 0003 0030 338
E: 59988.387530 0003 0000 830
E: 59988.387530 0003 0001 1155
E: 59988.387530 0003 0018 64
E: 59988.387530 0000 0000 0
E: 59988.393124 0003 003a 66
E: 59988.393124 0003 0018 66
E: 59988.393124 0000 0000 0
E: 59988.398687 0003 0036 1154
E: 59988.398687 0003 0001 1154
E: 59988.398687 0000 0000 0
E: 59988.404240 0003 0035 831
E: 59988.404240 0003 003a 70
E: 59988.404240 0003 0000 831
E: 59988.404240 0003 0018 70
E: 59988.404240 0000 0000 0
E: 59988.412986 0003 0035 828
E: 59988.412986 0003 0036 1153
E: 59988.412986 0003 003a 68
E: 59988.412986 0003 0030 286
E: 59988.412986 0001 0110 1
E: 59988.412986 0003 0000 828
E: 59988.412986 0003 0001 1153
E: 59988.412986 0003 0018 68
E: 59988.412986 0000 0000 0
E: 59988.420898 0003 0035 823
E: 59988.420898 0003 0036 1152
E: 59988.420898 0003 003a 73
E: 59988.420898 0003 0000 823
E: 59988.420898 0003 0001 1152
E: 59988.420898 0003 0018 73
E: 59988.420898 0000 0000 0
E: 59988.429283 0003 0035 819
E: 59988.429283 0003 0036 1151
E: 59988.429283 0003 003a 68
E: 59988.429283 0003 0000 819
E: 59988.429283 0003 0001 1151
E: 59988.429283 0003 0018 68
E: 59988.429283 0000 0000 0
E: 59988.438063 0003 0035 815
E: 59988.438063 0003 003a 70
E: 59988.438063 0003 002f 1
E: 59988.438063 0003 0039 20461
E: 59988.438063 0003 0035 898
E: 59988.438063 0003 0036 1194
E: 59988.438063 0003 003a 69
E: 59988.438063 0003 0030 286
E: 59988.438063 0001 0145 0
E: 59988.438063 0001 014d 1
E: 59988.438063 0003 0000 815
E: 59988.438063 0003 0018 70
E: 59988.438063 0000 0000 0
E: 59988.444302 0003 0035 896
E: 59988.444302 0003 003a 71
E: 59988.444302 0003 0030 360
E: 59988.444302 0000 0000 0
E: 59988.449843 0003 0035 892
E: 59988.449843 0003 003a 68
E: 59988.449843 0000 0000 0
E: 59988.455607 0003 0035 889
E: 59988.455607 0003 0036 1193
E: 59988.455607 0000 0000 0
E: 59988.461263 0003 0035 881
E: 59988.461263 0003 0036 1185
E: 59988.461263 0003 003a 73
E: 59988.461263 0000 0000 0
E: 59988.467211 0003 002f 0
E: 59988.467211 0003 0039 -1
E: 59988.467211 0003 002f 1
E: 59988.467211 0003 0035 876
E: 59988.467211 0003 0036 1186
E: 59988.467211 0003 003a 69
E: 59988.467211 0001 0145 1
E: 59988.467211 0001 014d 0
E: 59988.467211 0003 0000 876
E: 59988.467211 0003 0001 1186
E: 59988.467211 0003 0018 69
E: 59988.467211 0000 0000 0
E: 59988.472477 0003 0035 872
E: 59988.472477 0003 003a 70
E: 59988.472477 0003 0000 872
E: 59988.472477 0003 0018 70
E: 59988.472477 0000 0000 0
E: 59988.478208 0003 0035 866
E: 59988.478208 0003 0036 1179
E: 59988.478208 0003 003a 73
E: 59988.478208 0003 0000 866
E: 59988.478208 0003 0001 1179
E: 59988.478208 0003 0018 73
E: 59988.478208 0000 0000 0
E: 59988.483830 0003 0035 862
E: 59988.483830 0003 0036 1172
E: 59988.483830 0003 003a 69
E: 59988.483830 0003 0000 862
E: 59988.483830 0003 0001 1172
E: 59988.483830 0003 0018 69
E: 59988.483830 0000 0000 0
E: 59988.489361 0003 0035 860
E: 59988.489361 0003 0036 1175
E: 59988.489361 0003 0000 860
E: 59988.489361 0003 0001 1175
E: 59988.489361 0000 0000 0
E: 59988.495095 0003 0035 857
E: 59988.495095 0003 0036 1177
E: 59988.495095 0003 003a 67
E: 59988.495095 0003 0000 857
E: 59988.495095 0003 0001 1177
E: 59988.495095 0003 0018 67
E: 59988.495095 0000 0000 0
E: 59988.500655 0003 0035 856
E: 59988.500655 0003 0036 1178
E: 59988.500655 0003 003a 68
E: 59988.500655 0003 0000 856
E: 59988.500655 0003 0001 1178
E: 59988.500655 0003 0018 68
E: 59988.500655 0000 0000 0
E: 59988.506690 0003 0035 855
E: 59988.506690 0003 0036 1174
E: 59988.506690 0003 003a 69
E: 59988.506690 0001 0110 0
E: 59988.506690 0003 0000 855
E: 59988.506690 0003 0001 1174
E: 59988.506690 0003 0018 69
E: 59988.506690 0000 0000 0
E: 59988.511963 0003 0035 854
E: 59988.511963 0003 0036 1171
E: 59988.511963 0003 003a 67
E: 59988.511963 0003 0000 854
E: 59988.511963 0003 0001 1171
E: 59988.511963 0003 0018 67
E: 59988.511963 0000 0000 0
E: 59988.517546 0003 0035 853
E: 59988.517546 0003 0036 1169
E: 59988.517546 0003 003a 66
E: 59988.517546 0003 0000 853
E: 59988.517546 0003 0001 1169
E: 59988.517546 0003 0018 66
E: 59988.517546 0000 0000 0
E: 59988.523141 0003 0035 852
E: 59988.523141 0003 0036 1166
E: 59988.523141 0003 003a 63
E: 59988.523141 0003 0030 312
E: 59988.523141 0003 0000 852
E: 59988.523141 0003 0001 1166
E: 59988.523141 0003 0018 63
E: 59988.523141 0000 0000 0
E: 59988.528634 0003 0036 1163
E: 59988.528634 0003 003a 60
E: 59988.528634 0003 0001 1163
E: 59988.528634 0003 0018 60
E: 59988.528634 0000 0000 0
E: 59988.534086 0003 0036 1162
E: 59988.534086 0003 003a 64
E: 59988.534086 0003 0030 286
E: 59988.534086 0003 0001 1162
E: 59988.534086 0003 0018 64
E: 59988.534086 0000 0000 0
E: 59988.539507 0003 0035 851
E: 59988.539507 0003 003a 56
E: 59988.539507 0003 0000 851
E: 59988.539507 0003 0018 56
E: 59988.539507 0000 0000 0
E: 59988.545068 0003 0036 1161
E: 59988.545068 0003 003a 49
E: 59988.545068 0003 0001 1161
E: 59988.545068 0003 0018 49
E: 59988.545068 0000 0000 0
E: 59988.550599 0003 0036 1160
E: 59988.550599 0003 003a 39
E: 59988.550599 0003 0030 220
E: 59988.550599 0003 0001 1160
E: 59988.550599 0003 0018 39
E: 59988.550599 0000 0000 0
E: 59988.571022 0003 0039 -1
E: 59988.571022 0001 014a 0
E: 59988.571022 0001 0145 0
E: 59988.571022 0003 0018 0
E: 59988.571022 0000 0000 0
E: 59988.571522 0003 002f 0
E: 59988.571522 0003 0039 -1
E: 59988.571522 0003 002f 1
E: 59988.571522 0003 0039 -1
E: 59988.571522 0003 002f 2
E: 59988.571522 0003 0039 -1
E: 59988.571522 0003 002f 3
E: 59988.571522 0003 0039 -1
E: 59988.571522 0003 002f 4
E: 59988.571522 0003 0039 -1
E: 59988.571522 0003 002f 5
E: 59988.571522 0003 0039 -1
E: 59988.571522 0003 002f 6
E: 59988.571522 0003 0039 -1
E: 59988.571522 0003 002f 7
E: 59988.571522 0003 0039 -1
E: 59988.571522 0003 002f 8
E: 59988.571522 0003 0039 -1
E: 59988.571522 0003 002f 9
E: 59988.571522 0003 0039 -1
