E: 685.433520 0003 002f 0
E: 685.433520 0003 0039 -1
E: 685.433520 0003 002f 1
E: 685.433520 0003 0039 -1
E: 685.433520 0003 002f 2
E: 685.433520 0003 0039 -1
E: 685.433520 0003 002f 3
E: 685.433520 0003 0039 -1
E: 685.433520 0003 002f 4
E: 685.433520 0003 0039 -1
E: 685.433520 0003 002f 5
E: 685.433520 0003 0039 -1
E: 685.433520 0003 002f 6
E: 685.433520 0003 0039 -1
E: 685.433520 0003 002f 7
E: 685.433520 0003 0039 -1
E: 685.433520 0003 002f 8
E: 685.433520 0003 0039 -1
E: 685.433520 0003 002f 9
E: 685.433520 0003 0039 -1
E: 685.433520 0003 002f 10
E: 685.433520 0003 0039 -1
E: 685.433520 0003 002f 11
E: 685.433520 0003 0039 -1
E: 685.433520 0003 002f 12
E: 685.433520 0003 0039 -1
E: 685.433520 0003 002f 13
E: 685.433520 0003 0039 -1
E: 685.433520 0003 002f 14
E: 685.433520 0003 0039 -1
E: 685.433520 0003 002f 1
E: 685.433520 0000 0000 0
E: 685.784307 0003 002f 0
E: 685.784318 0003 0039 126
E: 685.784338 0003 0035 759
E: 685.784351 0003 0036 472
E: 685.784363 0003 003a 5
E: 685.784536 0001 014a 1
E: 685.784546 0001 0145 1
E: 685.784572 0003 0000 759
E: 685.784584 0003 0001 472
E: 685.784597 0003 0018 5
E: 685.784612 0000 0000 0
E: 685.793542 0003 0035 764
E: 685.793546 0003 003a 23
E: 685.793548 0003 002f 1
E: 685.793550 0003 0039 127
E: 685.793552 0003 0035 901
E: 685.793554 0003 0036 138
E: 685.793556 0003 003a 24
E: 685.793576 0001 0145 0
E: 685.793578 0001 014d 1
E: 685.793581 0003 0000 764
E: 685.793584 0003 0018 23
E: 685.793586 0000 0000 0
E: 685.803593 0003 002f 0
E: 685.803595 0003 003a 25
E: 685.803599 0003 002f 1
E: 685.803600 0003 0035 902
E: 685.803603 0003 003a 35
E: 685.803628 0003 0018 25
E: 685.803630 0000 0000 0
E: 685.813851 0003 002f 0
E: 685.813852 0003 003a 26
E: 685.813858 0003 002f 1
E: 685.813859 0003 003a 36
E: 685.813883 0003 0018 26
E: 685.813886 0000 0000 0
E: 685.823922 0003 002f 0
E: 685.823924 0003 0035 763
E: 685.823925 0003 0036 471
E: 685.823927 0003 003a 27
E: 685.823931 0003 002f 1
E: 685.823933 0003 0035 903
E: 685.823935 0003 003a 38
E: 685.823958 0003 0000 763
E: 685.823960 0003 0001 471
E: 685.823962 0003 0018 27
E: 685.823964 0000 0000 0
E: 685.833966 0003 002f 0
E: 685.833967 0003 0035 762
E: 685.833969 0003 0036 470
E: 685.833971 0003 003a 28
E: 685.833977 0003 002f 1
E: 685.833978 0003 003a 39
E: 685.834001 0003 0000 762
E: 685.834003 0003 0001 470
E: 685.834004 0003 0018 28
E: 685.834007 0000 0000 0
E: 685.844005 0003 002f 0
E: 685.844007 0003 0035 761
E: 685.844010 0003 003a 29
E: 685.844015 0003 002f 1
E: 685.844016 0003 003a 40
E: 685.844039 0003 0000 761
E: 685.844041 0003 0018 29
E: 685.844043 0000 0000 0
E: 685.864281 0003 002f 0
E: 685.864282 0003 003a 30
E: 685.864288 0003 002f 1
E: 685.864289 0003 003a 39
E: 685.864313 0003 0018 30
E: 685.864315 0000 0000 0
E: 685.874557 0001 0110 1
E: 685.874559 0000 0000 0
E: 685.884716 0003 002f 0
E: 685.884718 0003 0035 760
E: 685.884749 0003 0000 760
E: 685.884753 0000 0000 0
E: 685.894963 0003 002f 1
E: 685.894965 0003 003a 40
E: 685.894993 0000 0000 0
E: 685.905196 0003 0035 902
E: 685.905225 0000 0000 0
E: 685.915383 0003 003a 41
E: 685.915410 0000 0000 0
E: 685.956374 0003 002f 0
E: 685.956376 0003 003a 31
E: 685.956405 0003 0018 31
E: 685.956408 0000 0000 0
E: 685.966584 0003 003a 30
E: 685.966614 0003 0018 30
E: 685.966617 0000 0000 0
E: 685.976815 0003 002f 1
E: 685.976817 0003 003a 40
E: 685.976844 0000 0000 0
E: 685.987027 0003 002f 0
E: 685.987029 0003 003a 31
E: 685.987059 0003 0018 31
E: 685.987062 0000 0000 0
E: 685.997292 0001 0110 0
E: 685.997295 0000 0000 0
E: 686.027603 0003 003a 30
E: 686.027608 0003 002f 1
E: 686.027610 0003 0035 903
E: 686.027636 0003 0018 30
E: 686.027639 0000 0000 0
E: 686.048068 0003 003a 39
E: 686.048095 0000 0000 0
E: 686.058327 0003 003a 40
E: 686.058355 0000 0000 0
E: 686.068387 0003 003a 39
E: 686.068415 0000 0000 0
E: 686.088458 0003 002f 0
E: 686.088460 0003 0035 762
E: 686.088489 0003 0000 762
E: 686.088493 0000 0000 0
E: 686.191294 0003 003a 29
E: 686.191413 0003 0018 29
E: 686.191421 0000 0000 0
E: 686.201087 0003 003a 30
E: 686.201116 0003 0018 30
E: 686.201118 0000 0000 0
E: 686.211301 0003 002f 1
E: 686.211302 0003 0035 904
E: 686.211305 0003 003a 40
E: 686.211330 0000 0000 0
E: 686.221577 0003 003a 39
E: 686.221602 0000 0000 0
E: 686.231794 0003 003a 40
E: 686.231819 0000 0000 0
E: 686.241995 0003 002f 0
E: 686.241997 0003 0036 469
E: 686.242025 0003 0001 469
E: 686.242027 0000 0000 0
E: 686.252242 0003 002f 1
E: 686.252243 0003 003a 39
E: 686.252268 0000 0000 0
E: 686.262477 0003 002f 0
E: 686.262479 0003 003a 31
E: 686.262507 0003 0018 31
E: 686.262509 0000 0000 0
E: 686.272684 0003 002f 1
E: 686.272685 0003 0035 903
E: 686.272712 0000 0000 0
E: 686.282903 0003 002f 0
E: 686.282905 0003 003a 30
E: 686.282909 0003 002f 1
E: 686.282910 0003 0035 902
E: 686.282913 0003 003a 41
E: 686.282937 0003 0018 30
E: 686.282939 0000 0000 0
E: 686.293157 0003 002f 0
E: 686.293159 0003 0035 761
E: 686.293162 0003 003a 31
E: 686.293166 0003 002f 1
E: 686.293167 0003 0035 901
E: 686.293170 0003 003a 40
E: 686.293192 0003 0000 761
E: 686.293195 0003 0018 31
E: 686.293197 0001 0110 1
E: 686.293199 0000 0000 0
E: 686.313600 0003 0035 900
E: 686.313628 0000 0000 0
E: 686.364696 0003 0036 137
E: 686.364725 0000 0000 0
E: 686.374939 0003 003a 39
E: 686.374967 0000 0000 0
E: 686.385128 0003 003a 40
E: 686.385156 0000 0000 0
E: 686.405582 0003 002f 0
E: 686.405585 0003 003a 30
E: 686.405615 0003 0018 30
E: 686.405618 0000 0000 0
E: 686.416568 0003 0035 759
E: 686.416572 0003 003a 31
E: 686.416600 0003 0000 759
E: 686.416603 0003 0018 31
E: 686.416606 0000 0000 0
E: 686.427823 0003 003a 30
E: 686.427828 0003 002f 1
E: 686.427830 0003 0035 901
E: 686.427833 0003 003a 39
E: 686.427858 0003 0018 30
E: 686.427861 0000 0000 0
E: 686.438658 0003 002f 0
E: 686.438661 0003 0036 470
E: 686.438666 0003 002f 1
E: 686.438668 0003 0035 902
E: 686.438671 0003 003a 38
E: 686.438695 0003 0001 470
E: 686.438698 0001 0110 0
E: 686.438700 0000 0000 0
E: 686.449293 0003 002f 0
E: 686.449296 0003 0035 760
E: 686.449299 0003 003a 28
E: 686.449303 0003 002f 1
E: 686.449304 0003 0035 905
E: 686.449306 0003 0036 138
E: 686.449308 0003 003a 34
E: 686.449332 0003 0000 760
E: 686.449334 0003 0018 28
E: 686.449337 0000 0000 0
E: 686.460192 0003 002f 0
E: 686.460194 0003 003a 24
E: 686.460198 0003 002f 1
E: 686.460200 0003 0035 914
E: 686.460202 0003 0036 140
E: 686.460204 0003 003a 27
E: 686.460229 0003 0018 24
E: 686.460231 0000 0000 0
E: 686.470732 0003 002f 0
E: 686.470735 0003 0035 757
E: 686.470737 0003 0036 478
E: 686.470739 0003 003a 10
E: 686.470743 0003 002f 1
E: 686.470745 0003 0035 920
E: 686.470747 0003 0036 146
E: 686.470749 0003 003a 9
E: 686.470773 0003 0000 757
E: 686.470775 0003 0001 478
E: 686.470777 0003 0018 10
E: 686.470779 0000 0000 0
E: 686.478837 0003 002f 0
E: 686.478839 0003 0039 -1
E: 686.478842 0003 002f 1
E: 686.478843 0003 0039 -1
E: 686.478863 0001 014a 0
E: 686.478865 0001 014d 0
E: 686.478867 0003 0018 0
E: 686.478869 0000 0000 0
E: 687.003568 0003 002f 0
E: 687.003578 0003 0039 128
E: 687.003598 0003 0035 984
E: 687.003611 0003 0036 442
E: 687.003624 0003 003a 4
E: 687.003796 0001 014a 1
E: 687.003806 0001 0145 1
E: 687.003831 0003 0000 984
E: 687.003844 0003 0001 442
E: 687.003855 0003 0018 4
E: 687.003870 0000 0000 0
E: 687.012072 0003 0035 986
E: 687.012075 0003 0036 445
E: 687.012077 0003 003a 7
E: 687.012100 0003 0000 986
E: 687.012102 0003 0001 445
E: 687.012104 0003 0018 7
E: 687.012106 0000 0000 0
E: 687.021173 0003 0035 985
E: 687.021176 0003 0036 447
E: 687.021178 0003 003a 10
E: 687.021201 0003 0000 985
E: 687.021203 0003 0001 447
E: 687.021205 0003 0018 10
E: 687.021207 0000 0000 0
E: 687.031675 0003 0035 981
E: 687.031679 0003 003a 12
E: 687.031681 0003 002f 1
E: 687.031683 0003 0039 129
E: 687.031685 0003 0035 1136
E: 687.031687 0003 0036 106
E: 687.031689 0003 003a 5
E: 687.031709 0001 0145 0
E: 687.031711 0001 014d 1
E: 687.031714 0003 0000 981
E: 687.031717 0003 0018 12
E: 687.031719 0000 0000 0
E: 687.042210 0003 002f 0
E: 687.042212 0003 0035 979
E: 687.042214 0003 0036 454
E: 687.042216 0003 003a 14
E: 687.042220 0003 002f 1
E: 687.042221 0003 0035 1139
E: 687.042224 0003 003a 9
E: 687.042246 0003 0000 979
E: 687.042248 0003 0001 454
E: 687.042250 0003 0018 14
E: 687.042252 0000 0000 0
E: 687.052794 0003 002f 0
E: 687.052796 0003 0035 978
E: 687.052798 0003 0036 455
E: 687.052800 0003 003a 15
E: 687.052804 0003 002f 1
E: 687.052805 0003 0035 1137
E: 687.052807 0003 0036 109
E: 687.052809 0003 003a 11
E: 687.052832 0003 0000 978
E: 687.052834 0003 0001 455
E: 687.052836 0003 0018 15
E: 687.052838 0000 0000 0
E: 687.063358 0003 0035 1134
E: 687.063359 0003 0036 110
E: 687.063361 0003 003a 14
E: 687.063386 0000 0000 0
E: 687.073944 0003 002f 0
E: 687.073945 0003 003a 17
E: 687.073950 0003 002f 1
E: 687.073951 0003 0036 112
E: 687.073953 0003 003a 19
E: 687.073977 0003 0018 17
E: 687.073979 0000 0000 0
E: 687.084664 0003 002f 0
E: 687.084666 0003 0035 977
E: 687.084669 0003 003a 18
E: 687.084673 0003 002f 1
E: 687.084674 0003 0035 1132
E: 687.084676 0003 0036 113
E: 687.084678 0003 003a 22
E: 687.084701 0003 0000 977
E: 687.084704 0003 0018 18
E: 687.084706 0000 0000 0
E: 687.095472 0003 002f 0
E: 687.095474 0003 0035 975
E: 687.095476 0003 0036 457
E: 687.095478 0003 003a 19
E: 687.095483 0003 002f 1
E: 687.095485 0003 003a 27
E: 687.095508 0003 0000 975
E: 687.095510 0003 0001 457
E: 687.095512 0003 0018 19
E: 687.095514 0000 0000 0
E: 687.106236 0003 002f 0
E: 687.106238 0003 0035 974
E: 687.106240 0003 0036 459
E: 687.106241 0003 003a 20
E: 687.106245 0003 002f 1
E: 687.106247 0003 0035 1131
E: 687.106249 0003 003a 30
E: 687.106272 0003 0000 974
E: 687.106274 0003 0001 459
E: 687.106276 0003 0018 20
E: 687.106278 0000 0000 0
E: 687.116990 0003 002f 0
E: 687.116992 0003 003a 22
E: 687.116996 0003 002f 1
E: 687.116998 0003 0036 114
E: 687.116999 0003 003a 32
E: 687.117024 0003 0018 22
E: 687.117026 0000 0000 0
E: 687.127696 0003 002f 0
E: 687.127698 0003 0035 973
E: 687.127704 0003 002f 1
E: 687.127705 0003 0035 1130
E: 687.127708 0003 003a 33
E: 687.127730 0003 0000 973
E: 687.127734 0000 0000 0
E: 687.138414 0003 002f 0
E: 687.138416 0003 003a 23
E: 687.138421 0003 002f 1
E: 687.138422 0003 003a 34
E: 687.138446 0003 0018 23
E: 687.138449 0000 0000 0
E: 687.149210 0003 002f 0
E: 687.149212 0003 0035 972
E: 687.149215 0003 003a 24
E: 687.149219 0003 002f 1
E: 687.149220 0003 0035 1129
E: 687.149223 0003 003a 35
E: 687.149245 0003 0000 972
E: 687.149248 0003 0018 24
E: 687.149250 0000 0000 0
E: 687.160136 0003 002f 0
E: 687.160138 0003 0035 971
E: 687.160141 0003 003a 25
E: 687.160168 0003 0000 971
E: 687.160170 0003 0018 25
E: 687.160173 0000 0000 0
E: 687.182023 0003 0035 970
E: 687.182051 0003 0000 970
E: 687.182055 0000 0000 0
E: 687.192985 0003 0035 969
E: 687.192988 0003 003a 26
E: 687.192992 0003 002f 1
E: 687.192994 0003 0036 112
E: 687.192996 0003 003a 36
E: 687.193018 0003 0000 969
E: 687.193021 0003 0018 26
E: 687.193023 0000 0000 0
E: 687.203908 0003 002f 0
E: 687.203910 0003 003a 25
E: 687.203915 0003 002f 1
E: 687.203916 0003 003a 37
E: 687.203940 0003 0018 25
E: 687.203942 0001 0110 1
E: 687.203944 0000 0000 0
E: 687.225819 0003 002f 0
E: 687.225821 0003 003a 26
E: 687.225854 0003 0018 26
E: 687.225857 0000 0000 0
E: 687.236727 0003 003a 25
E: 687.236733 0003 002f 1
E: 687.236735 0003 003a 36
E: 687.236760 0003 0018 25
E: 687.236763 0000 0000 0
E: 687.269822 0003 002f 0
E: 687.269824 0003 003a 24
E: 687.269854 0003 0018 24
E: 687.269856 0000 0000 0
E: 687.280430 0003 003a 25
E: 687.280461 0003 0018 25
E: 687.280464 0000 0000 0
E: 687.291404 0003 0036 458
E: 687.291408 0003 003a 26
E: 687.291413 0003 002f 1
E: 687.291414 0003 0036 113
E: 687.291416 0003 003a 37
E: 687.291441 0003 0001 458
E: 687.291443 0003 0018 26
E: 687.291446 0000 0000 0
E: 687.302317 0003 002f 0
E: 687.302319 0003 003a 25
E: 687.302348 0003 0018 25
E: 687.302351 0000 0000 0
E: 687.313099 0003 0035 970
E: 687.313106 0003 002f 1
E: 687.313108 0003 003a 36
E: 687.313132 0003 0000 970
E: 687.313136 0000 0000 0
E: 687.323863 0003 002f 0
E: 687.323866 0003 003a 26
E: 687.323896 0003 0018 26
E: 687.323899 0000 0000 0
E: 687.334571 0003 002f 1
E: 687.334573 0003 003a 37
E: 687.334599 0000 0000 0
E: 687.345371 0003 002f 0
E: 687.345373 0003 0036 459
E: 687.345379 0003 002f 1
E: 687.345380 0003 0036 114
E: 687.345406 0003 0001 459
E: 687.345409 0001 0110 0
E: 687.345410 0000 0000 0
E: 687.377731 0003 002f 0
E: 687.377733 0003 0035 971
E: 687.377776 0003 0000 971
E: 687.377780 0000 0000 0
E: 687.399271 0003 003a 27
E: 687.399302 0003 0018 27
E: 687.399305 0000 0000 0
E: 687.410050 0003 003a 26
E: 687.410081 0003 0018 26
E: 687.410083 0000 0000 0
E: 687.420835 0003 002f 1
E: 687.420837 0003 003a 36
E: 687.420864 0000 0000 0
E: 687.431613 0003 003a 37
E: 687.431639 0000 0000 0
E: 687.453214 0003 0035 1130
E: 687.453241 0000 0000 0
E: 687.496340 0003 002f 0
E: 687.496342 0003 003a 25
E: 687.496370 0003 0018 25
E: 687.496372 0000 0000 0
E: 687.507105 0003 003a 26
E: 687.507134 0003 0018 26
E: 687.507137 0000 0000 0
E: 687.528657 0003 002f 1
E: 687.528658 0003 0035 1131
E: 687.528661 0003 003a 36
E: 687.528686 0000 0000 0
E: 687.550184 0003 002f 0
E: 687.550185 0003 003a 25
E: 687.550191 0003 002f 1
E: 687.550192 0003 003a 37
E: 687.550216 0003 0018 25
E: 687.550218 0000 0000 0
E: 687.560983 0003 003a 36
E: 687.561008 0000 0000 0
E: 687.571749 0003 003a 37
E: 687.571774 0000 0000 0
E: 687.582498 0003 002f 0
E: 687.582500 0003 003a 26
E: 687.582528 0003 0018 26
E: 687.582530 0000 0000 0
E: 687.593286 0003 002f 1
E: 687.593288 0003 003a 38
E: 687.593313 0000 0000 0
E: 687.604045 0003 002f 0
E: 687.604046 0003 003a 25
E: 687.604074 0003 0018 25
E: 687.604077 0000 0000 0
E: 687.614797 0003 002f 1
E: 687.614799 0003 003a 37
E: 687.614824 0000 0000 0
E: 687.625514 0003 002f 0
E: 687.625516 0003 0036 458
E: 687.625518 0003 003a 26
E: 687.625522 0003 002f 1
E: 687.625523 0003 0035 1130
E: 687.625548 0003 0001 458
E: 687.625550 0003 0018 26
E: 687.625552 0000 0000 0
E: 687.636331 0003 0036 115
E: 687.636334 0003 003a 38
E: 687.636360 0001 0110 1
E: 687.636362 0000 0000 0
E: 687.658054 0003 0035 1129
E: 687.658082 0000 0000 0
E: 687.669008 0003 003a 39
E: 687.669049 0000 0000 0
E: 687.712885 0003 003a 40
E: 687.712913 0000 0000 0
E: 687.723830 0003 002f 0
E: 687.723833 0003 003a 27
E: 687.723838 0003 002f 1
E: 687.723839 0003 0036 116
E: 687.723841 0003 003a 38
E: 687.723866 0003 0018 27
E: 687.723869 0000 0000 0
E: 687.734530 0003 002f 0
E: 687.734533 0003 003a 26
E: 687.734562 0003 0018 26
E: 687.734565 0000 0000 0
E: 687.745337 0003 002f 1
E: 687.745339 0003 0036 117
E: 687.745366 0001 0110 0
E: 687.745368 0000 0000 0
E: 687.756141 0003 002f 0
E: 687.756143 0003 0035 973
E: 687.756146 0003 0036 460
E: 687.756149 0003 003a 24
E: 687.756155 0003 002f 1
E: 687.756157 0003 0036 118
E: 687.756159 0003 003a 37
E: 687.756197 0003 0000 973
E: 687.756200 0003 0001 460
E: 687.756202 0003 0018 24
E: 687.756204 0000 0000 0
E: 687.766717 0003 002f 0
E: 687.766719 0003 003a 12
E: 687.766723 0003 002f 1
E: 687.766724 0003 0035 1133
E: 687.766726 0003 0036 123
E: 687.766729 0003 003a 29
E: 687.766754 0003 0018 12
E: 687.766756 0000 0000 0
E: 687.776380 0003 0035 1132
E: 687.776384 0003 0036 132
E: 687.776386 0003 003a 15
E: 687.776389 0003 002f 0
E: 687.776390 0003 0039 -1
E: 687.776411 0001 0145 1
E: 687.776413 0001 014d 0
E: 687.776416 0003 0000 1132
E: 687.776418 0003 0001 132
E: 687.776420 0003 0018 15
E: 687.776423 0000 0000 0
E: 687.784498 0003 002f 1
E: 687.784500 0003 0039 -1
E: 687.784527 0001 014a 0
E: 687.784529 0001 0145 0
E: 687.784533 0003 0018 0
E: 687.784535 0000 0000 0
E: 688.289393 0003 002f 0
E: 688.289404 0003 0039 130
E: 688.289424 0003 0035 962
E: 688.289437 0003 0036 239
E: 688.289449 0003 003a 6
E: 688.289623 0001 014a 1
E: 688.289632 0001 0145 1
E: 688.289658 0003 0000 962
E: 688.289671 0003 0001 239
E: 688.289683 0003 0018 6
E: 688.289698 0000 0000 0
E: 688.297312 0003 003a 13
E: 688.297337 0003 0018 13
E: 688.297340 0000 0000 0
E: 688.305873 0003 0035 965
E: 688.305875 0003 0036 238
E: 688.305877 0003 003a 16
E: 688.305900 0003 0000 965
E: 688.305902 0003 0001 238
E: 688.305904 0003 0018 16
E: 688.305906 0000 0000 0
E: 688.314451 0003 0036 239
E: 688.314454 0003 003a 17
E: 688.314478 0003 0001 239
E: 688.314480 0003 0018 17
E: 688.314482 0000 0000 0
E: 688.323008 0003 003a 19
E: 688.323033 0003 0018 19
E: 688.323036 0000 0000 0
E: 688.331559 0003 0036 242
E: 688.331563 0003 003a 22
E: 688.331587 0003 0001 242
E: 688.331589 0003 0018 22
E: 688.331591 0000 0000 0
E: 688.340107 0003 003a 23
E: 688.340132 0003 0018 23
E: 688.340135 0000 0000 0
E: 688.348696 0003 003a 24
E: 688.348721 0003 0018 24
E: 688.348723 0000 0000 0
E: 688.357327 0003 003a 25
E: 688.357353 0003 0018 25
E: 688.357355 0000 0000 0
E: 688.366993 0003 0036 240
E: 688.366997 0003 002f 1
E: 688.366998 0003 0039 131
E: 688.367001 0003 0035 544
E: 688.367002 0003 0036 313
E: 688.367004 0003 003a 13
E: 688.367025 0001 0145 0
E: 688.367027 0001 014d 1
E: 688.367031 0003 0001 240
E: 688.367033 0000 0000 0
E: 688.376936 0003 002f 0
E: 688.376938 0003 003a 26
E: 688.376943 0003 002f 1
E: 688.376944 0003 0036 317
E: 688.376946 0003 003a 20
E: 688.376970 0003 0018 26
E: 688.376972 0000 0000 0
E: 688.386894 0003 002f 0
E: 688.386896 0003 0035 964
E: 688.386900 0003 003a 27
E: 688.386904 0003 002f 1
E: 688.386905 0003 0035 546
E: 688.386907 0003 0036 316
E: 688.386909 0003 003a 24
E: 688.386932 0003 0000 964
E: 688.386935 0003 0018 27
E: 688.386937 0000 0000 0
E: 688.396864 0003 002f 0
E: 688.396866 0003 0036 241
E: 688.396871 0003 002f 1
E: 688.396872 0003 0035 547
E: 688.396875 0003 003a 26
E: 688.396898 0003 0001 241
E: 688.396901 0000 0000 0
E: 688.406769 0003 003a 27
E: 688.406795 0000 0000 0
E: 688.416697 0003 002f 0
E: 688.416699 0003 003a 28
E: 688.416705 0003 002f 1
E: 688.416706 0003 0036 315
E: 688.416708 0003 003a 29
E: 688.416731 0003 0018 28
E: 688.416734 0000 0000 0
E: 688.426585 0003 002f 0
E: 688.426587 0003 0035 963
E: 688.426615 0003 0000 963
E: 688.426619 0000 0000 0
E: 688.436525 0003 002f 1
E: 688.436527 0003 0036 314
E: 688.436528 0003 003a 30
E: 688.436554 0000 0000 0
E: 688.446463 0001 0110 1
E: 688.446465 0000 0000 0
E: 688.456379 0003 002f 0
E: 688.456382 0003 0035 962
E: 688.456391 0003 002f 1
E: 688.456393 0003 0036 313
E: 688.456395 0003 003a 31
E: 688.456432 0003 0000 962
E: 688.456438 0000 0000 0
E: 688.476226 0003 002f 0
E: 688.476228 0003 003a 29
E: 688.476259 0003 0018 29
E: 688.476261 0000 0000 0
E: 688.496146 0003 002f 1
E: 688.496149 0003 0036 312
E: 688.496177 0000 0000 0
E: 688.515904 0003 002f 0
E: 688.515906 0003 0036 240
E: 688.515935 0003 0001 240
E: 688.515939 0000 0000 0
E: 688.555636 0003 002f 1
E: 688.555639 0003 003a 32
E: 688.555677 0000 0000 0
E: 688.565549 0003 003a 31
E: 688.565576 0000 0000 0
E: 688.575516 0003 0036 313
E: 688.575520 0003 003a 32
E: 688.575547 0000 0000 0
E: 688.585376 0003 002f 0
E: 688.585378 0003 003a 30
E: 688.585407 0003 0018 30
E: 688.585410 0000 0000 0
E: 688.595629 0003 002f 1
E: 688.595631 0003 0036 314
E: 688.595659 0001 0110 0
E: 688.595661 0000 0000 0
E: 688.605549 0003 002f 0
E: 688.605551 0003 003a 29
E: 688.605581 0003 0018 29
E: 688.605584 0000 0000 0
E: 688.615288 0003 0035 963
E: 688.615290 0003 0036 241
E: 688.615319 0003 0000 963
E: 688.615321 0003 0001 241
E: 688.615324 0000 0000 0
E: 688.625201 0003 0035 964
E: 688.625208 0003 002f 1
E: 688.625209 0003 0036 315
E: 688.625235 0003 0000 964
E: 688.625239 0000 0000 0
E: 688.664975 0003 0036 316
E: 688.664978 0003 003a 31
E: 688.665003 0000 0000 0
E: 688.674917 0003 002f 0
E: 688.674919 0003 003a 28
E: 688.674947 0003 0018 28
E: 688.674950 0000 0000 0
E: 688.684837 0003 003a 29
E: 688.684865 0003 0018 29
E: 688.684868 0000 0000 0
E: 688.694806 0003 003a 28
E: 688.694835 0003 0018 28
E: 688.694837 0000 0000 0
E: 688.714645 0003 002f 1
E: 688.714647 0003 003a 30
E: 688.714672 0000 0000 0
E: 688.724544 0003 002f 0
E: 688.724546 0003 0036 242
E: 688.724574 0003 0001 242
E: 688.724577 0000 0000 0
E: 688.744430 0003 002f 1
E: 688.744432 0003 003a 31
E: 688.744456 0000 0000 0
E: 688.754346 0003 002f 0
E: 688.754348 0003 003a 29
E: 688.754376 0003 0018 29
E: 688.754379 0000 0000 0
E: 688.880587 0003 002f 1
E: 688.880597 0003 003a 32
E: 688.880805 0000 0000 0
E: 688.933473 0003 002f 0
E: 688.933475 0003 0035 963
E: 688.933477 0003 0036 243
E: 688.933479 0003 003a 30
E: 688.933506 0003 0000 963
E: 688.933508 0003 0001 243
E: 688.933510 0003 0018 30
E: 688.933512 0000 0000 0
E: 688.944171 0003 003a 29
E: 688.944199 0003 0018 29
E: 688.944202 0000 0000 0
E: 688.954885 0003 002f 1
E: 688.954887 0003 003a 33
E: 688.954912 0000 0000 0
E: 688.965603 0003 002f 0
E: 688.965605 0003 0035 962
E: 688.965607 0003 0036 246
E: 688.965609 0003 003a 30
E: 688.965635 0003 0000 962
E: 688.965637 0003 0001 246
E: 688.965639 0003 0018 30
E: 688.965641 0001 0110 1
E: 688.965643 0000 0000 0
E: 688.976347 0003 0035 961
E: 688.976350 0003 0036 248
E: 688.976352 0003 003a 29
E: 688.976381 0003 0000 961
E: 688.976383 0003 0001 248
E: 688.976385 0003 0018 29
E: 688.976388 0000 0000 0
E: 688.987026 0003 003a 30
E: 688.987074 0003 0018 30
E: 688.987078 0000 0000 0
E: 688.997730 0003 0036 249
E: 688.997733 0003 003a 29
E: 688.997763 0003 0001 249
E: 688.997765 0003 0018 29
E: 688.997767 0000 0000 0
E: 689.008461 0003 003a 30
E: 689.008493 0003 0018 30
E: 689.008496 0000 0000 0
E: 689.105167 0003 0036 250
E: 689.105175 0003 003a 31
E: 689.105290 0003 0001 250
E: 689.105296 0003 0018 31
E: 689.105304 0000 0000 0
E: 689.115719 0003 003a 30
E: 689.115725 0003 002f 1
E: 689.115726 0003 0036 317
E: 689.115752 0003 0018 30
E: 689.115754 0001 0110 0
E: 689.115756 0000 0000 0
E: 689.126561 0003 002f 0
E: 689.126563 0003 0035 962
E: 689.126565 0003 0036 251
E: 689.126572 0003 002f 1
E: 689.126573 0003 003a 32
E: 689.126597 0003 0000 962
E: 689.126599 0003 0001 251
E: 689.126603 0000 0000 0
E: 689.137350 0003 002f 0
E: 689.137352 0003 0035 963
E: 689.137355 0003 003a 29
E: 689.137360 0003 002f 1
E: 689.137361 0003 0036 319
E: 689.137363 0003 003a 31
E: 689.137400 0003 0000 963
E: 689.137403 0003 0018 29
E: 689.137405 0000 0000 0
E: 689.148212 0003 002f 0
E: 689.148214 0003 0035 964
E: 689.148216 0003 0036 252
E: 689.148218 0003 003a 28
E: 689.148223 0003 002f 1
E: 689.148224 0003 0036 321
E: 689.148226 0003 003a 30
E: 689.148250 0003 0000 964
E: 689.148252 0003 0001 252
E: 689.148254 0003 0018 28
E: 689.148256 0000 0000 0
E: 689.159078 0003 002f 0
E: 689.159081 0003 003a 27
E: 689.159086 0003 002f 1
E: 689.159087 0003 0036 323
E: 689.159089 0003 003a 27
E: 689.159114 0003 0018 27
E: 689.159116 0000 0000 0
E: 689.169893 0003 002f 0
E: 689.169895 0003 003a 23
E: 689.169900 0003 002f 1
E: 689.169901 0003 0036 326
E: 689.169903 0003 003a 23
E: 689.169928 0003 0018 23
E: 689.169930 0000 0000 0
E: 689.180717 0003 002f 0
E: 689.180719 0003 0035 963
E: 689.180721 0003 0036 251
E: 689.180723 0003 003a 14
E: 689.180727 0003 002f 1
E: 689.180728 0003 0035 546
E: 689.180730 0003 0036 330
E: 689.180732 0003 003a 14
E: 689.180755 0003 0000 963
E: 689.180757 0003 0001 251
E: 689.180759 0003 0018 14
E: 689.180761 0000 0000 0
E: 689.190091 0003 0035 543
E: 689.190094 0003 0036 332
E: 689.190095 0003 003a 6
E: 689.190098 0003 002f 0
E: 689.190099 0003 0039 -1
E: 689.190120 0001 0145 1
E: 689.190122 0001 014d 0
E: 689.190124 0003 0000 543
E: 689.190126 0003 0001 332
E: 689.190128 0003 0018 6
E: 689.190131 0000 0000 0
E: 689.198277 0003 002f 1
E: 689.198278 0003 0039 -1
E: 689.198298 0001 014a 0
E: 689.198300 0001 0145 0
E: 689.198302 0003 0018 0
E: 689.198304 0000 0000 0
E: 689.706512 0003 002f 0
E: 689.706523 0003 0039 132
E: 689.706542 0003 0035 426
E: 689.706554 0003 0036 409
E: 689.706567 0003 003a 16
E: 689.706739 0001 014a 1
E: 689.706748 0001 0145 1
E: 689.706773 0003 0000 426
E: 689.706786 0003 0001 409
E: 689.706797 0003 0018 16
E: 689.706812 0000 0000 0
E: 689.715161 0003 0035 425
E: 689.715163 0003 0036 405
E: 689.715165 0003 003a 21
E: 689.715188 0003 0000 425
E: 689.715190 0003 0001 405
E: 689.715192 0003 0018 21
E: 689.715194 0000 0000 0
E: 689.726336 0003 0035 419
E: 689.726338 0003 0036 409
E: 689.726340 0003 003a 23
E: 689.726343 0003 002f 1
E: 689.726344 0003 0039 133
E: 689.726347 0003 0035 602
E: 689.726349 0003 0036 252
E: 689.726351 0003 003a 5
E: 689.726371 0001 0145 0
E: 689.726373 0001 014d 1
E: 689.726376 0003 0000 419
E: 689.726378 0003 0001 409
E: 689.726380 0003 0018 23
E: 689.726382 0000 0000 0
E: 689.737620 0003 002f 0
E: 689.737622 0003 0035 417
E: 689.737624 0003 0036 408
E: 689.737626 0003 003a 25
E: 689.737630 0003 002f 1
E: 689.737631 0003 0035 612
E: 689.737633 0003 0036 250
E: 689.737635 0003 003a 19
E: 689.737658 0003 0000 417
E: 689.737660 0003 0001 408
E: 689.737661 0003 0018 25
E: 689.737664 0000 0000 0
E: 689.748925 0003 002f 0
E: 689.748927 0003 0035 416
E: 689.748929 0003 0036 407
E: 689.748931 0003 003a 27
E: 689.748935 0003 002f 1
E: 689.748936 0003 0035 614
E: 689.748938 0003 0036 249
E: 689.748940 0003 003a 23
E: 689.748962 0003 0000 416
E: 689.748964 0003 0001 407
E: 689.748966 0003 0018 27
E: 689.748968 0000 0000 0
E: 689.760319 0003 002f 0
E: 689.760321 0003 0035 415
E: 689.760323 0003 0036 408
E: 689.760325 0003 003a 29
E: 689.760329 0003 002f 1
E: 689.760330 0003 0035 615
E: 689.760333 0003 003a 27
E: 689.760356 0003 0000 415
E: 689.760358 0003 0001 408
E: 689.760360 0003 0018 29
E: 689.760362 0000 0000 0
E: 689.771733 0003 002f 0
E: 689.771735 0003 0035 414
E: 689.771737 0003 0036 407
E: 689.771739 0003 003a 31
E: 689.771743 0003 002f 1
E: 689.771745 0003 0035 616
E: 689.771747 0003 003a 29
E: 689.771770 0003 0000 414
E: 689.771772 0003 0001 407
E: 689.771774 0003 0018 31
E: 689.771776 0000 0000 0
E: 689.783151 0003 002f 0
E: 689.783153 0003 0035 412
E: 689.783155 0003 003a 33
E: 689.783160 0003 002f 1
E: 689.783161 0003 0036 246
E: 689.783163 0003 003a 31
E: 689.783186 0003 0000 412
E: 689.783188 0003 0018 33
E: 689.783190 0000 0000 0
E: 689.794618 0003 002f 0
E: 689.794620 0003 0035 413
E: 689.794622 0003 0036 406
E: 689.794627 0003 002f 1
E: 689.794628 0003 0035 615
E: 689.794630 0003 0036 247
E: 689.794632 0003 003a 33
E: 689.794656 0003 0000 413
E: 689.794658 0003 0001 406
E: 689.794661 0000 0000 0
E: 689.806009 0003 002f 0
E: 689.806011 0003 0035 414
E: 689.806013 0003 003a 35
E: 689.806018 0003 002f 1
E: 689.806019 0003 0036 246
E: 689.806021 0003 003a 34
E: 689.806044 0003 0000 414
E: 689.806046 0003 0018 35
E: 689.806049 0000 0000 0
E: 689.817428 0003 002f 0
E: 689.817429 0003 0035 415
E: 689.817431 0003 0036 405
E: 689.817436 0003 002f 1
E: 689.817437 0003 0035 614
E: 689.817439 0003 0036 247
E: 689.817442 0003 003a 35
E: 689.817465 0003 0000 415
E: 689.817467 0003 0001 405
E: 689.817470 0000 0000 0
E: 689.840238 0003 002f 0
E: 689.840240 0003 003a 36
E: 689.840244 0003 002f 1
E: 689.840245 0003 0035 613
E: 689.840247 0003 0036 246
E: 689.840272 0003 0018 36
E: 689.840274 0001 0110 1
E: 689.840275 0000 0000 0
E: 689.851675 0003 002f 0
E: 689.851678 0003 0035 414
E: 689.851681 0003 0036 404
E: 689.851689 0003 002f 1
E: 689.851691 0003 0035 612
E: 689.851695 0003 003a 36
E: 689.851733 0003 0000 414
E: 689.851735 0003 0001 404
E: 689.851745 0000 0000 0
E: 689.863121 0003 002f 0
E: 689.863123 0003 0036 405
E: 689.863171 0003 0001 405
E: 689.863177 0000 0000 0
E: 689.874504 0003 0036 404
E: 689.874508 0003 003a 37
E: 689.874512 0003 002f 1
E: 689.874514 0003 0036 245
E: 689.874540 0003 0001 404
E: 689.874542 0003 0018 37
E: 689.874545 0000 0000 0
E: 689.885895 0003 0035 613
E: 689.885898 0003 0036 244
E: 689.885926 0000 0000 0
E: 689.897314 0003 002f 0
E: 689.897316 0003 0035 413
E: 689.897319 0003 003a 36
E: 689.897323 0003 002f 1
E: 689.897325 0003 0035 614
E: 689.897350 0003 0000 413
E: 689.897353 0003 0018 36
E: 689.897355 0000 0000 0
E: 689.920091 0003 003a 37
E: 689.920118 0000 0000 0
E: 689.942919 0003 002f 0
E: 689.942921 0003 0035 414
E: 689.942924 0003 003a 37
E: 689.942953 0003 0000 414
E: 689.942956 0003 0018 37
E: 689.942959 0000 0000 0
E: 689.954316 0003 002f 1
E: 689.954319 0003 0035 615
E: 689.954321 0003 0036 245
E: 689.954348 0000 0000 0
E: 689.965775 0003 002f 0
E: 689.965777 0003 0036 405
E: 689.965817 0003 0001 405
E: 689.965822 0000 0000 0
E: 689.988569 0003 0035 413
E: 689.988571 0003 0036 406
E: 689.988574 0003 003a 36
E: 689.988601 0003 0000 413
E: 689.988603 0003 0001 406
E: 689.988606 0003 0018 36
E: 689.988608 0000 0000 0
E: 689.999981 0003 0035 414
E: 689.999984 0003 003a 37
E: 689.999988 0003 002f 1
E: 689.999990 0003 0035 616
E: 689.999993 0003 003a 36
E: 690.000054 0003 0000 414
E: 690.000057 0003 0018 37
E: 690.000060 0000 0000 0
E: 690.011432 0003 002f 0
E: 690.011434 0003 0035 413
E: 690.011436 0003 0036 405
E: 690.011438 0003 003a 36
E: 690.011443 0003 002f 1
E: 690.011445 0003 0036 246
E: 690.011470 0003 0000 413
E: 690.011472 0003 0001 405
E: 690.011473 0003 0018 36
E: 690.011475 0001 0110 0
E: 690.011477 0000 0000 0
E: 690.022837 0003 002f 0
E: 690.022839 0003 0035 414
E: 690.022842 0003 003a 35
E: 690.022869 0003 0000 414
E: 690.022872 0003 0018 35
E: 690.022875 0000 0000 0
E: 690.034247 0003 002f 1
E: 690.034249 0003 0035 617
E: 690.034278 0000 0000 0
E: 690.045639 0003 0035 616
E: 690.045642 0003 0036 247
E: 690.045644 0003 003a 35
E: 690.045671 0000 0000 0
E: 690.057067 0003 002f 0
E: 690.057069 0003 0036 406
E: 690.057098 0003 0001 406
E: 690.057101 0000 0000 0
E: 690.068484 0003 0036 405
E: 690.068490 0003 002f 1
E: 690.068491 0003 0036 246
E: 690.068516 0003 0001 405
E: 690.068519 0000 0000 0
E: 690.079878 0003 002f 0
E: 690.079880 0003 0035 415
E: 690.079882 0003 0036 406
E: 690.079910 0003 0000 415
E: 690.079912 0003 0001 406
E: 690.079915 0000 0000 0
E: 690.102748 0003 0036 405
E: 690.102776 0003 0001 405
E: 690.102779 0000 0000 0
E: 690.114166 0003 0036 406
E: 690.114194 0003 0001 406
E: 690.114197 0000 0000 0
E: 690.125597 0003 0036 405
E: 690.125600 0003 003a 36
E: 690.125627 0003 0001 405
E: 690.125629 0003 0018 36
E: 690.125631 0000 0000 0
E: 690.148423 0003 0035 414
E: 690.148451 0003 0000 414
E: 690.148455 0000 0000 0
E: 690.171285 0003 002f 1
E: 690.171287 0003 0035 617
E: 690.171289 0003 0036 245
E: 690.171314 0000 0000 0
E: 690.182701 0003 002f 0
E: 690.182703 0003 0035 415
E: 690.182704 0003 0036 404
E: 690.182706 0003 003a 37
E: 690.182710 0003 002f 1
E: 690.182712 0003 0035 616
E: 690.182714 0003 0036 246
E: 690.182716 0003 003a 36
E: 690.182738 0003 0000 415
E: 690.182740 0003 0001 404
E: 690.182742 0003 0018 37
E: 690.182744 0000 0000 0
E: 690.194310 0003 003a 38
E: 690.194336 0000 0000 0
E: 690.205905 0003 002f 0
E: 690.205907 0003 0036 405
E: 690.205935 0003 0001 405
E: 690.205938 0000 0000 0
E: 690.217488 0003 002f 1
E: 690.217489 0003 0035 615
E: 690.217492 0003 003a 37
E: 690.217517 0000 0000 0
E: 690.228911 0003 002f 0
E: 690.228913 0003 0035 416
E: 690.228916 0003 003a 38
E: 690.228943 0003 0000 416
E: 690.228945 0003 0018 38
E: 690.228947 0001 0110 1
E: 690.228949 0000 0000 0
E: 690.240335 0003 003a 37
E: 690.240340 0003 002f 1
E: 690.240342 0003 0035 614
E: 690.240369 0003 0018 37
E: 690.240372 0000 0000 0
E: 690.274576 0003 002f 0
E: 690.274579 0003 0035 415
E: 690.274609 0003 0000 415
E: 690.274614 0000 0000 0
E: 690.286251 0003 002f 1
E: 690.286254 0003 003a 38
E: 690.286281 0000 0000 0
E: 690.297771 0003 002f 0
E: 690.297774 0003 0035 416
E: 690.297804 0003 0000 416
E: 690.297808 0000 0000 0
E: 690.309377 0003 0035 415
E: 690.309380 0003 0036 404
E: 690.309409 0003 0000 415
E: 690.309411 0003 0001 404
E: 690.309415 0000 0000 0
E: 690.320879 0003 002f 1
E: 690.320882 0003 0035 615
E: 690.320885 0003 003a 37
E: 690.320911 0000 0000 0
E: 690.344073 0003 002f 0
E: 690.344075 0003 0035 414
E: 690.344078 0003 0036 405
E: 690.344113 0003 0000 414
E: 690.344116 0003 0001 405
E: 690.344120 0000 0000 0
E: 690.367283 0003 0035 413
E: 690.367287 0003 003a 36
E: 690.367291 0003 002f 1
E: 690.367292 0003 0035 616
E: 690.367318 0003 0000 413
E: 690.367321 0003 0018 36
E: 690.367324 0000 0000 0
E: 690.378826 0003 002f 0
E: 690.378828 0003 0036 406
E: 690.378859 0003 0001 406
E: 690.378863 0000 0000 0
E: 690.389829 0003 002f 1
E: 690.389831 0003 0035 618
E: 690.389833 0003 0036 245
E: 690.389835 0003 003a 36
E: 690.389862 0000 0000 0
E: 690.400288 0003 002f 0
E: 690.400290 0003 0036 407
E: 690.400292 0003 003a 35
E: 690.400297 0003 002f 1
E: 690.400298 0003 0035 619
E: 690.400301 0003 003a 37
E: 690.400325 0003 0001 407
E: 690.400327 0003 0018 35
E: 690.400330 0000 0000 0
E: 690.411090 0003 002f 0
E: 690.411091 0003 0036 409
E: 690.411094 0003 003a 33
E: 690.411099 0003 002f 1
E: 690.411100 0003 0036 244
E: 690.411102 0003 003a 36
E: 690.411127 0003 0001 409
E: 690.411129 0003 0018 33
E: 690.411131 0001 0110 0
E: 690.411133 0000 0000 0
E: 690.421923 0003 002f 0
E: 690.421925 0003 0035 412
E: 690.421927 0003 0036 412
E: 690.421929 0003 003a 30
E: 690.421933 0003 002f 1
E: 690.421934 0003 0035 618
E: 690.421936 0003 0036 247
E: 690.421938 0003 003a 35
E: 690.421962 0003 0000 412
E: 690.421964 0003 0001 412
E: 690.421966 0003 0018 30
E: 690.421968 0000 0000 0
E: 690.432553 0003 002f 0
E: 690.432555 0003 0035 411
E: 690.432557 0003 0036 416
E: 690.432559 0003 003a 21
E: 690.432564 0003 002f 1
E: 690.432565 0003 0036 249
E: 690.432567 0003 003a 31
E: 690.432590 0003 0000 411
E: 690.432592 0003 0001 416
E: 690.432594 0003 0018 21
E: 690.432596 0000 0000 0
E: 690.443128 0003 002f 0
E: 690.443130 0003 0035 405
E: 690.443132 0003 0036 415
E: 690.443134 0003 003a 7
E: 690.443138 0003 002f 1
E: 690.443139 0003 0035 620
E: 690.443141 0003 0036 250
E: 690.443143 0003 003a 20
E: 690.443166 0003 0000 405
E: 690.443168 0003 0001 415
E: 690.443170 0003 0018 7
E: 690.443172 0000 0000 0
E: 690.451783 0003 0035 615
E: 690.451785 0003 0036 258
E: 690.451787 0003 003a 6
E: 690.451790 0003 002f 0
E: 690.451791 0003 0039 -1
E: 690.451811 0001 0145 1
E: 690.451813 0001 014d 0
E: 690.451816 0003 0000 615
E: 690.451818 0003 0001 258
E: 690.451820 0003 0018 6
E: 690.451822 0000 0000 0
E: 690.459164 0003 002f 1
E: 690.459165 0003 0039 -1
E: 690.459185 0001 014a 0
E: 690.459186 0001 0145 0
E: 690.459189 0003 0018 0
E: 690.459191 0000 0000 0
E: 690.852275 0003 002f 0
E: 690.852285 0003 0039 134
E: 690.852305 0003 0035 991
E: 690.852318 0003 0036 262
E: 690.852330 0003 003a 5
E: 690.852502 0001 014a 1
E: 690.852512 0001 0145 1
E: 690.852537 0003 0000 991
E: 690.852549 0003 0001 262
E: 690.852560 0003 0018 5
E: 690.852575 0000 0000 0
E: 690.862169 0003 0035 979
E: 690.862171 0003 0036 266
E: 690.862173 0003 003a 25
E: 690.862176 0003 002f 1
E: 690.862177 0003 0039 135
E: 690.862180 0003 0035 771
E: 690.862182 0003 0036 354
E: 690.862184 0003 003a 5
E: 690.862204 0001 0145 0
E: 690.862206 0001 014d 1
E: 690.862209 0003 0000 979
E: 690.862211 0003 0001 266
E: 690.862213 0003 0018 25
E: 690.862215 0000 0000 0
E: 690.872712 0003 002f 0
E: 690.872713 0003 0035 978
E: 690.872715 0003 0036 265
E: 690.872717 0003 003a 26
E: 690.872721 0003 002f 1
E: 690.872723 0003 0035 779
E: 690.872724 0003 0036 358
E: 690.872726 0003 003a 24
E: 690.872749 0003 0000 978
E: 690.872751 0003 0001 265
E: 690.872753 0003 0018 26
E: 690.872755 0000 0000 0
E: 690.883264 0003 002f 0
E: 690.883265 0003 0035 977
E: 690.883267 0003 0036 266
E: 690.883269 0003 003a 28
E: 690.883273 0003 002f 1
E: 690.883274 0003 0035 775
E: 690.883276 0003 0036 357
E: 690.883278 0003 003a 26
E: 690.883301 0003 0000 977
E: 690.883303 0003 0001 266
E: 690.883305 0003 0018 28
E: 690.883307 0000 0000 0
E: 690.893874 0003 002f 0
E: 690.893876 0003 0035 975
E: 690.893878 0003 003a 29
E: 690.893882 0003 002f 1
E: 690.893883 0003 0035 776
E: 690.893886 0003 003a 27
E: 690.893909 0003 0000 975
E: 690.893912 0003 0018 29
E: 690.893914 0000 0000 0
E: 690.904408 0003 002f 0
E: 690.904410 0003 0035 976
E: 690.904412 0003 0036 265
E: 690.904417 0003 002f 1
E: 690.904418 0003 0035 774
E: 690.904420 0003 0036 356
E: 690.904422 0003 003a 28
E: 690.904444 0003 0000 976
E: 690.904446 0003 0001 265
E: 690.904449 0000 0000 0
E: 690.914965 0003 002f 0
E: 690.914966 0003 0035 975
E: 690.914969 0003 003a 30
E: 690.914973 0003 002f 1
E: 690.914974 0003 0035 775
E: 690.914976 0003 0036 355
E: 690.914978 0003 003a 29
E: 690.915001 0003 0000 975
E: 690.915003 0003 0018 30
E: 690.915025 0000 0000 0
E: 690.925579 0003 002f 0
E: 690.925581 0003 0035 978
E: 690.925583 0003 0036 264
E: 690.925585 0003 003a 31
E: 690.925589 0003 002f 1
E: 690.925590 0003 0035 774
E: 690.925593 0003 003a 30
E: 690.925615 0003 0000 978
E: 690.925617 0003 0001 264
E: 690.925619 0003 0018 31
E: 690.925622 0000 0000 0
E: 690.946661 0003 002f 0
E: 690.946663 0003 0035 977
E: 690.946665 0003 0036 263
E: 690.946693 0003 0000 977
E: 690.946695 0003 0001 263
E: 690.946698 0000 0000 0
E: 690.957271 0003 002f 1
E: 690.957272 0003 0035 773
E: 690.957299 0001 0110 1
E: 690.957301 0000 0000 0
E: 690.967989 0003 002f 0
E: 690.967992 0003 0035 976
E: 690.967995 0003 0036 264
E: 690.967997 0003 003a 32
E: 690.968002 0003 002f 1
E: 690.968004 0003 0035 772
E: 690.968006 0003 0036 354
E: 690.968008 0003 003a 31
E: 690.968034 0003 0000 976
E: 690.968036 0003 0001 264
E: 690.968038 0003 0018 32
E: 690.968041 0000 0000 0
E: 690.978750 0003 002f 0
E: 690.978754 0003 0036 263
E: 690.978767 0003 002f 1
E: 690.978770 0003 0035 773
E: 690.978834 0003 0001 263
E: 690.978841 0000 0000 0
E: 690.989451 0003 0035 772
E: 690.989454 0003 003a 30
E: 690.989489 0000 0000 0
E: 691.000211 0003 002f 0
E: 691.000213 0003 0036 264
E: 691.000244 0003 0001 264
E: 691.000247 0000 0000 0
E: 691.032497 0003 0035 977
E: 691.032501 0003 003a 31
E: 691.032529 0003 0000 977
E: 691.032532 0003 0018 31
E: 691.032535 0000 0000 0
E: 691.043160 0003 0036 265
E: 691.043165 0003 003a 32
E: 691.043171 0003 002f 1
E: 691.043172 0003 0035 771
E: 691.043204 0003 0001 265
E: 691.043207 0003 0018 32
E: 691.043212 0000 0000 0
E: 691.053864 0003 002f 0
E: 691.053866 0003 0035 976
E: 691.053869 0003 0036 264
E: 691.053874 0003 002f 1
E: 691.053876 0003 0036 355
E: 691.053878 0003 003a 31
E: 691.053902 0003 0000 976
E: 691.053904 0003 0001 264
E: 691.053907 0000 0000 0
E: 691.064575 0003 002f 0
E: 691.064577 0003 0035 977
E: 691.064580 0003 0036 265
E: 691.064608 0003 0000 977
E: 691.064610 0003 0001 265
E: 691.064614 0000 0000 0
E: 691.075349 0003 0035 976
E: 691.075360 0003 002f 1
E: 691.075362 0003 0036 357
E: 691.075365 0003 003a 30
E: 691.075391 0003 0000 976
E: 691.075395 0000 0000 0
E: 691.096492 0003 002f 0
E: 691.096494 0003 0035 977
E: 691.096496 0003 0036 266
E: 691.096501 0003 002f 1
E: 691.096503 0003 0035 772
E: 691.096528 0003 0000 977
E: 691.096530 0003 0001 266
E: 691.096533 0001 0110 0
E: 691.096535 0000 0000 0
E: 691.107182 0003 002f 0
E: 691.107184 0003 0035 976
E: 691.107186 0003 0036 265
E: 691.107192 0003 002f 1
E: 691.107193 0003 0036 358
E: 691.107195 0003 003a 31
E: 691.107219 0003 0000 976
E: 691.107220 0003 0001 265
E: 691.107224 0000 0000 0
E: 691.117578 0003 002f 0
E: 691.117580 0003 0035 977
E: 691.117582 0003 0036 266
E: 691.117588 0003 002f 1
E: 691.117589 0003 0036 357
E: 691.117613 0003 0000 977
E: 691.117615 0003 0001 266
E: 691.117618 0000 0000 0
E: 691.138668 0003 002f 0
E: 691.138670 0003 0035 978
E: 691.138673 0003 003a 33
E: 691.138701 0003 0000 978
E: 691.138704 0003 0018 33
E: 691.138706 0000 0000 0
E: 691.149344 0003 0036 265
E: 691.149350 0003 002f 1
E: 691.149352 0003 0036 358
E: 691.149354 0003 003a 30
E: 691.149379 0003 0001 265
E: 691.149382 0000 0000 0
E: 691.170367 0003 002f 0
E: 691.170369 0003 003a 32
E: 691.170397 0003 0018 32
E: 691.170400 0000 0000 0
E: 691.181003 0003 0035 979
E: 691.181032 0003 0000 979
E: 691.181036 0000 0000 0
E: 691.223178 0003 002f 1
E: 691.223180 0003 0035 773
E: 691.223182 0003 003a 31
E: 691.223207 0000 0000 0
E: 691.233723 0003 0035 772
E: 691.233725 0003 0036 357
E: 691.233751 0000 0000 0
E: 691.244248 0003 0035 773
E: 691.244251 0003 003a 30
E: 691.244276 0000 0000 0
E: 691.254783 0003 002f 0
E: 691.254784 0003 0035 978
E: 691.254813 0003 0000 978
E: 691.254816 0000 0000 0
E: 691.265332 0003 0035 979
E: 691.265360 0003 0000 979
E: 691.265364 0000 0000 0
E: 691.286454 0003 002f 1
E: 691.286455 0003 0035 772
E: 691.286482 0000 0000 0
E: 691.297006 0003 0036 358
E: 691.297008 0003 003a 31
E: 691.297033 0000 0000 0
E: 691.308334 0003 002f 0
E: 691.308336 0003 0035 977
E: 691.308342 0003 002f 1
E: 691.308343 0003 0036 357
E: 691.308366 0003 0000 977
E: 691.308370 0000 0000 0
E: 691.331024 0003 003a 30
E: 691.331050 0000 0000 0
E: 691.342369 0003 0035 771
E: 691.342396 0000 0000 0
E: 691.353690 0003 002f 0
E: 691.353692 0003 003a 31
E: 691.353720 0003 0018 31
E: 691.353722 0000 0000 0
E: 691.364990 0003 0035 976
E: 691.364993 0003 003a 32
E: 691.364997 0003 002f 1
E: 691.364999 0003 0036 358
E: 691.365001 0003 003a 31
E: 691.365047 0003 0000 976
E: 691.365050 0003 0018 32
E: 691.365053 0000 0000 0
E: 691.376329 0003 002f 0
E: 691.376330 0003 0035 975
E: 691.376332 0003 0036 266
E: 691.376334 0003 003a 31
E: 691.376339 0003 002f 1
E: 691.376340 0003 0036 359
E: 691.376364 0003 0000 975
E: 691.376366 0003 0001 266
E: 691.376368 0003 0018 31
E: 691.376370 0000 0000 0
E: 691.387670 0003 002f 0
E: 691.387672 0003 003a 32
E: 691.387700 0003 0018 32
E: 691.387702 0001 0110 1
E: 691.387704 0000 0000 0
E: 691.399018 0003 002f 1
E: 691.399021 0003 003a 32
E: 691.399048 0000 0000 0
E: 691.410375 0003 002f 0
E: 691.410377 0003 0035 974
E: 691.410383 0003 002f 1
E: 691.410384 0003 0035 770
E: 691.410386 0003 0036 358
E: 691.410412 0003 0000 974
E: 691.410416 0000 0000 0
E: 691.421652 0003 002f 0
E: 691.421654 0003 0035 975
E: 691.421657 0003 003a 33
E: 691.421685 0003 0000 975
E: 691.421688 0003 0018 33
E: 691.421691 0000 0000 0
E: 691.455635 0003 002f 1
E: 691.455638 0003 0035 771
E: 691.455640 0003 0036 357
E: 691.455642 0003 003a 31
E: 691.455669 0000 0000 0
E: 691.478320 0003 002f 0
E: 691.478322 0003 0036 265
E: 691.478352 0003 0001 265
E: 691.478356 0000 0000 0
E: 691.512271 0003 003a 32
E: 691.512302 0003 0018 32
E: 691.512305 0000 0000 0
E: 691.523534 0003 0035 976
E: 691.523536 0003 0036 266
E: 691.523565 0003 0000 976
E: 691.523567 0003 0001 266
E: 691.523570 0000 0000 0
E: 691.534936 0003 0035 977
E: 691.534942 0003 002f 1
E: 691.534944 0003 0035 772
E: 691.534969 0003 0000 977
E: 691.534973 0001 0110 0
E: 691.534975 0000 0000 0
E: 691.546249 0003 002f 0
E: 691.546252 0003 0035 978
E: 691.546254 0003 0036 265
E: 691.546256 0003 003a 31
E: 691.546260 0003 002f 1
E: 691.546261 0003 0035 774
E: 691.546263 0003 0036 359
E: 691.546265 0003 003a 30
E: 691.546289 0003 0000 978
E: 691.546291 0003 0001 265
E: 691.546293 0003 0018 31
E: 691.546295 0000 0000 0
E: 691.557700 0003 002f 0
E: 691.557703 0003 0035 981
E: 691.557706 0003 0036 266
E: 691.557709 0003 003a 30
E: 691.557713 0003 002f 1
E: 691.557715 0003 0035 776
E: 691.557718 0003 0036 360
E: 691.557719 0003 003a 27
E: 691.557751 0003 0000 981
E: 691.557754 0003 0001 266
E: 691.557756 0003 0018 30
E: 691.557759 0000 0000 0
E: 691.568915 0003 002f 0
E: 691.568918 0003 0036 267
E: 691.568920 0003 003a 25
E: 691.568924 0003 002f 1
E: 691.568925 0003 0035 780
E: 691.568927 0003 0036 361
E: 691.568929 0003 003a 18
E: 691.568954 0003 0001 267
E: 691.568956 0003 0018 25
E: 691.568958 0000 0000 0
E: 691.580264 0003 002f 0
E: 691.580267 0003 0035 975
E: 691.580269 0003 0036 268
E: 691.580271 0003 003a 11
E: 691.580275 0003 002f 1
E: 691.580277 0003 0035 776
E: 691.580279 0003 0036 362
E: 691.580281 0003 003a 7
E: 691.580304 0003 0000 975
E: 691.580306 0003 0001 268
E: 691.580308 0003 0018 11
E: 691.580311 0000 0000 0
E: 691.588429 0003 002f 0
E: 691.588431 0003 0039 -1
E: 691.588434 0003 002f 1
E: 691.588435 0003 0039 -1
E: 691.588456 0001 014a 0
E: 691.588458 0001 014d 0
E: 691.588460 0003 0018 0
E: 691.588462 0000 0000 0
E: 691.588962 0003 002f 0
E: 691.588962 0003 0039 -1
E: 691.588962 0003 002f 1
E: 691.588962 0003 0039 -1
E: 691.588962 0003 002f 2
E: 691.588962 0003 0039 -1
E: 691.588962 0003 002f 3
E: 691.588962 0003 0039 -1
E: 691.588962 0003 002f 4
E: 691.588962 0003 0039 -1
E: 691.588962 0003 002f 5
E: 691.588962 0003 0039 -1
E: 691.588962 0003 002f 6
E: 691.588962 0003 0039 -1
E: 691.588962 0003 002f 7
E: 691.588962 0003 0039 -1
E: 691.588962 0003 002f 8
E: 691.588962 0003 0039 -1
E: 691.588962 0003 002f 9
E: 691.588962 0003 0039 -1
E: 691.588962 0003 002f 10
E: 691.588962 0003 0039 -1
E: 691.588962 0003 002f 11
E: 691.588962 0003 0039 -1
E: 691.588962 0003 002f 12
E: 691.588962 0003 0039 -1
E: 691.588962 0003 002f 13
E: 691.588962 0003 0039 -1
E: 691.588962 0003 002f 14
E: 691.588962 0003 0039 -1
