name=Accessibility Sample role=application
++role=genericContainer
++++role=ignored
++++++role=ignored
++++++++role=ignored
++++++++++role=ignored
++++++++++++role=ignored
++++++++++++++name=Accessibility Sample role=staticText
++++++++++++++role=ignored
++++++++++role=ignored
++++++++++++role=ignored
++++++++++++++name=OFF role=toggleButton
++++++++++++++name=CheckBox role=checkBox
++++++++++++++name=seekBar role=slider
++++++++++++++name=seekBarDiscrete role=slider
